{
    "macros": {
        "install__arch": {
            "prefix": ["sudo", "pacman", "-S"]
        },
        "install__ubuntu": {
            "prefix": ["sudo", "apt-get", "install", "-y"]
        },
        "apt-remove": {
            "prefix": ["sudo", "apt-get", "remove", "-y"]
        },
        "add-alt": {
            "prefix": ["sudo", "update-alternatives", "--install"]
        },
        "add-repo": {
            "prefix": ["sudo", "add-apt-repository"]
        },
        "clone": {
            "prefix": ["git", "clone"]
        }
    },
    "tasks": {
        "install-crontabs": {
            "cmds": [
                ["${HM_SRC}/install_crontabs.sh",  "${HM_SRC}/crontab"]
            ]
        },

        "figlet" : {
            "cmds" : [
                ["@install", "figlet"],
                ["sudo", "cp", "${HM_SRC}/.config/figlet/basic.flf", "/usr/share/figlet/basic.flf"]
            ]
        },
        "install-polybar": {
            "cmds": [
                ["${HM_SRC}/install_polybar.sh"]
            ]
        },
        "polybar": {
            "deps": ["install-polybar"],
            "links": [
                [".config/polybar"]
            ]

        },
        "install-i3": {
            "rejects":[["which", "i3"]],
            "cmds": [
                ["${HM_SRC}/install_i3.sh"]
            ]
        },
        "i3": {
            "deps": ["install-i3"],
            "links": [
                [".config/i3"]
            ]

        },
        "install-kitty": {
            "rejects":[["which", "kitty"]],
            "cmds": [
                ["${HM_SRC}/install_kitty.sh"],
                ["@add-alt", "/usr/bin/x-terminal-emulator", "x-terminal-emulator", "${HM_DEST}/.local/bin/kitty ", "60"]
            ]

        },
        "kitty": {
            "deps":["install-kitty"],
            "links": [
                [".config/kitty"]
            ]

        },
        "install-neofetch": {
            "rejects":[["which", "neofetch"]],
            "cmds": [
                ["${HM_SRC}/install_neofetch.sh"]
            ]
        },
        "welcome-message": {
            "deps": ["install-fish", "figlet", "install-crontabs"]
        },
        "install-fish": {
            "rejects": [["which", "fish"]],
            "cmds": [
                ["@install", "fish"],
                ["chsh", "-s", "/usr/bin/fish"]
            ]
        },
        "fish": {
            "deps": ["install-fish"],
            "cmds": [
                ["chsh", "-s", "/usr/bin/fish"]
            ],
            "links": [
                [".config/fish"]
            ]
        },
        "install-nvim__arch": {
            "rejects": [["which", "nvim"]],
            "cmds": [
                ["@install", "neovim","python", "base-devel", "cmake", "npm"]
            ]
        },
        "install-nvim__ubuntu": {
            "rejects": [["which", "nvim"]],
            "cmds": [
                ["@install", "software-properties-common"],
                ["@add-repo", "ppa:neovim-ppa/stable"],
                ["@install", "neovim","python-dev", "python-pip", "python3-dev", "python3-pip", "cmake", "npm", "node-gyp", "nodejs-dev", "libssl1.0-dev"],
                ["@add-alt", "/usr/bin/vi", "vi", "/usr/bin/nvim", "60"],
                ["@add-alt", "/usr/bin/vim", "vim", "/usr/bin/nvim", "60"],
                ["@add-alt", "/usr/bin/editor", "editor", "/usr/bin/nvim", "60"]
            ]
        },
        "vim": {
            "deps": ["install-nvim"],
            "cmds": [
                ["curl", "-fLo", "~/.config/nvim/autoload/plug.vim","--create-dirs", "https://raw.githubusercontent.com/junegunn/vim-plug/master/plug.vim"]
            ],
            "links": [
                [".config/nvim"],
                [".vimrc"]
            ]
        },
        "misc": {
            "links": [
                [".config/misc"],
                ["scripts"]
            ]
        },

        "install-git": {
            "rejects": [["which", "git"]],
            "cmd": [
                ["@install", "git"]
            ]
        },
        "git": {
            "deps": ["install-git"],
            "links": [
                [".gitconfig"]
            ]
        },

        "common": {
            "deps": ["vim", "fish", "git", "welcome-message", "misc", "figlet"]
        },

        "desktop": {

            "deps":["common", "kitty", "polybar"]
        },

        "default": {
            "deps": [ "common", "misc" ]
        }
    }
}
